Original Matrix 
124,000 121,000 128,000 255,000
110,000 120,000 141,000 141,000
 96,000 135,000 120,000 135,000
108,000 110,000 119,000 128,000

New_Matrix_MaximumAverageRotate_90
0,000 0,000 0,000 0,000
0,000 0,000 0,000 0,000
0,000 0,000 0,000 0,000
0,000 0,000 0,000 0,000
